2716 3086
2730 3055
2762 3021
2759 3015
2767 2976
2773 2928
2759 2894
2751 2848
2710 2791
2732 2814
2713 2752
2713 2710
2743 2692
2789 2687
2791 2667
2743 2517
2762 2551
2791 2625
2743 2480
2786 2585
2773 2449
2770 2406
2762 2358
2514 1376
2514 1334
2765 2318
2546 1392
2560 1437
2573 1477
2584 1517
2678 1885
2603 1542
2673 1845
2692 1919
2673 1805
2708 1950
2627 1570
2743 2095
2783 2273
2673 1763
2657 1687
2665 1720
2643 1602
2724 1981
2654 1627
2657 1638
2783 2239
2740 2015
2778 2200
2762 2120
2751 2052
2754 2055
2778 2157
3413 1451
3421 1443
3413 1494
3408 1536
3408 1579
3480 1350
3410 1627
3498 1340
3478 1440
3410 1672
3392 1755
3408 1715
3392 1769
3392 1893
3389 1905
3389 1947
3402 1993
3405 2078
3413 2092
3427 2126
3427 2177
3424 2222
3413 2270
3410 2381
3397 2418
3381 2593
3416 2582
3505 2732
3510 2732
3548 2749
3575 2777
3596 2803
3612 2840
3591 2885
3335 2987
3362 2979
3305 3004
3308 3027
3631 2970
3308 3069
3435 3072
3297 3109
3289 3149
3276 3185
3257 3220
3230 3250
3211 3282
3182 3319
3182 3361
3179 3401
3327 3610
3179 3443
3330 3710
3168 3475
3182 3520
3165 3520
3184 3568
3187 3593
3281 3817
3190 3622
3192 3659
3192 3698
3184 3721
3152 3741
3120 3755
3128 3896
3080 3758
3050 3766
3010 3755
2988 3735
2969 3715
2937 4350
2931 4313
2926 4395
2931 3857
2910 4290
2934 3715
2899 4410
2891 4520
2896 4169
2875 4475
2865 4584
2894 4132
2867 4537
2861 4582
2883 4217
2875 4279
2856 4523
2859 4455
2859 4412
2843 4557
2880 4092
2867 4234
2875 4061
2824 4525
2821 4537
2880 3865
2872 3900
2789 4551
2791 4511
2778 4528
2783 4449
2880 3712
2770 4489
2778 4415
2754 4412
2762 4197
2743 4299
2780 4084
2724 4384
2751 4234
2759 4185
2743 4270
2780 4070
2708 4406
2751 4155
2710 4358
2710 4325
2770 4033
2751 4118
2770 3990
2765 3950
2756 3908
2751 3868
2751 3826
2754 3783
2762 3744
2765 3701
2759 3645
2735 3619
2713 3588
2695 3554
2684 3517
2684 3505
2678 3446
2681 3426
2697 3401
2708 3367
2700 3333
2692 3293
2710 3268
2743 3231
2735 3197
2730 3160
2710 3126

